Project 2: Data Mining, Classification, Prediction
…
data %>% group_by(playlist_genre) %>% summarise(count = n())

## # A tibble: 6 x 2
##   playlist_genre count
##   <chr>          <int>
## 1 edm             6043
## 2 latin           5155
## 3 pop             5507
## 4 r&b             5431
## 5 rap             5746
## 6 rock            4951

data %>% group_by(playlist_subgenre) %>% summarise(count = n())

## # A tibble: 24 x 2
##    playlist_subgenre count
##    <chr>             <int>
##  1 album rock         1065
##  2 big room           1206
##  3 classic rock       1296
##  4 dance pop          1298
##  5 electro house      1511
##  6 electropop         1408
##  7 gangster rap       1458
##  8 hard rock          1485
##  9 hip hop            1322
## 10 hip pop            1256
## #  with 14 more rows
…
